'Mx915', 'Idle Screen Video', 408, 184, 'AVI', 25, None
'Mx925', 'Idle Screen Video', 680, 324, 'AVI', 25, None
'Mx915', 'Idle Screen Banner', 480, 48, 'PNG;JPG', 5, None
'Mx925', 'Idle Screen Banner', 800, 105, 'PNG;JPG', 5, None
'Mx915', 'Idle Screen - Full Image', 480, 272, 'PNG', None, '2.19.17'
'Mx925', 'Idle Screen - Full Image', 800, 480, 'PNG', None, '2.19.17'
'Mx915', 'Idle Screen - Full Video', 480, 272, 'AVI', None, None
'Mx925', 'Idle Screen - Full Video', 720, 480, 'AVI', None, None
'Mx915', 'Idle Screen - Full Animation', 480, 272, 'EET', None, None
'Mx925', 'Idle Screen - Full Animation', 720, 480, 'EET', None, None
'Mx915', 'Line Item Screen Ad Area', 120, 120, 'PNG;JPG', 10, '2.19.26'
'Mx925', 'Line Item Screen Ad Area', 232, 311, 'PNG;JPG', 10, '2.19.26'
'Mx915', 'FULL Line Item Screen Banner', 480, 42, 'PNG', 5, None
'Mx925', 'FULL Line Item Screen Banner', 796, 100, 'PNG', 5, None
'Mx915', 'Welcome Screen', 440, 160, 'PNG', None, '2.19.17'
'Mx925', 'Welcome Screen', 720, 300, 'PNG', None, '2.19.17'
